{
  "channels": {
    "filter": [
      "✦-allgemein",
      "✦-quick-links",
      "✦-to-do-liste",
      "✦-termine",
      "✦-social-media",
      "✦-offtopic",
      "✦-care-channel",
      "✦-organisation",
      "✦-strategietag-1902",
      "✦-kleinaktionen",

      "✦-klimawahlen-website",
      "✦-landestheater-interviews-14-02",
      "✦-dein-ort-aktion",
      "✦-nön-kooperation",
      "✦-landtagssitzung-1711",
      "✦-klimawahl-allgemeines",
      "✦-bundesplenum",
      "✦-protestcamp",
      "✦-schleritzko-termin",
      "✦-unterstützer-innen",
      "✦-evn-aktion",
      "✦-inhalt",
      "✦-presse",
      "✦-alt-klimastreik2309",
      "✦-kurzvideodreh-29-10"
    ],
    "archived": [
      "✦-klimawahlen-website",
      "✦-landestheater-interviews-14-02",
      "✦-dein-ort-aktion",
      "✦-nön-kooperation",
      "✦-landtagssitzung-1711",
      "✦-klimawahl-allgemeines",
      "✦-bundesplenum",
      "✦-protestcamp",
      "✦-schleritzko-termin",
      "✦-unterstützer-innen",
      "✦-evn-aktion",
      "✦-inhalt",
      "✦-presse",
      "✦-alt-klimastreik2309",
      "✦-kurzvideodreh-29-10"
    ],
    "ignore": []
  },
  "exportDir": "exports",
  "strategy": "bulk"
}
